{
  "images" : [
    {
      "idiom" : "universal",
      "filename" : "landingBackground.png",
      "scale" : "1x"
    },
    {
      "idiom" : "universal",
      "filename" : "landingBackground@2x.png",
      "scale" : "2x"
    },
    {
      "idiom" : "universal",
      "filename" : "landingBackground@3x.png",
      "scale" : "3x"
    },
    {
      "idiom" : "ipad",
      "filename" : "homeScreen.png",
      "scale" : "1x"
    },
    {
      "idiom" : "ipad",
      "filename" : "homeScreen-2x.png",
      "scale" : "2x"
    }
  ],
  "info" : {
    "version" : 1,
    "author" : "xcode"
  }
}