{
  "images" : [
    {
      "idiom" : "iphone",
      "filename" : "FormBackground.png",
      "scale" : "1x"
    },
    {
      "idiom" : "iphone",
      "filename" : "FormBackground@2x.png",
      "scale" : "2x"
    },
    {
      "idiom" : "iphone",
      "filename" : "690*1140.png",
      "scale" : "3x"
    },
    {
      "idiom" : "ipad",
      "filename" : "FormBackground_ipad.png",
      "scale" : "1x"
    },
    {
      "idiom" : "ipad",
      "filename" : "FormBackground_ipad@2x.png",
      "scale" : "2x"
    }
  ],
  "info" : {
    "version" : 1,
    "author" : "xcode"
  }
}